VCD_files/multiplexers_tb.vcd
$date
	Sun Jun 14 15:42:13 2026
$end
$version
	Icarus Verilog
$end
$timescale
	1ps
$end
$scope module multiplexers_tb $end
$var wire 1 ! y8 $end
$var wire 1 " y4 $end
$var wire 1 # y2 $end
$var reg 1 $ a $end
$var reg 1 % b $end
$var reg 4 & d4 [3:0] $end
$var reg 8 ' d8 [7:0] $end
$var reg 1 ( sel2 $end
$var reg 2 ) sel4 [1:0] $end
$var reg 3 * sel8 [2:0] $end
$scope module uut2 $end
$var wire 1 $ a $end
$var wire 1 % b $end
$var wire 1 ( sel $end
$var wire 1 # y $end
$upscope $end
$scope module uut4 $end
$var wire 4 + d [3:0] $end
$var wire 2 , sel [1:0] $end
$var reg 1 " y $end
$upscope $end
$scope module uut8 $end
$var wire 8 - d [7:0] $end
$var wire 3 . sel [2:0] $end
$var reg 1 ! y $end
$upscope $end
$upscope $end
$enddefinitions $end
$comment Show the parameter values. $end
$dumpall
$end
#0
$dumpvars
bx .
bx -
bx ,
bx +
bx *
bx )
0(
bx '
bx &
1%
0$
0#
x"
x!
$end
#10000
1#
1(
#20000
0(
0%
1$
#30000
0#
1(
#40000
0"
b0 )
b0 ,
b1010 &
b1010 +
#50000
1"
b1 )
b1 ,
#60000
0"
b10 )
b10 ,
#70000
1"
b11 )
b11 ,
#80000
0!
b0 *
b0 .
b11001010 '
b11001010 -
#90000
1!
b1 *
b1 .
#100000
0!
b10 *
b10 .
#110000
1!
b11 *
b11 .
#120000
0!
b100 *
b100 .
#130000
b101 *
b101 .
#140000
1!
b110 *
b110 .
#150000
b111 *
b111 .
